\select@language {spanish}
\contentsline {section}{\numberline {1}Introducci\IeC {\'o}n}{2}
\contentsline {section}{\numberline {2}Desarrollo}{4}
\contentsline {subsection}{\numberline {2.1}Implementaci\IeC {\'o}n}{4}
\contentsline {subsubsection}{\numberline {2.1.1}Ejercicio 1: }{4}
\contentsline {subsubsection}{\numberline {2.1.2}Ejercicio 2}{5}
\contentsline {subsubsection}{\numberline {2.1.3}Ejercicio 3}{5}
\contentsline {subsubsection}{\numberline {2.1.4}Ejercicio 4}{6}
\contentsline {subsubsection}{\numberline {2.1.5}Ejercicio 5}{6}
\contentsline {subsubsection}{\numberline {2.1.6}Ejercicio 6}{7}
\contentsline {subsubsection}{\numberline {2.1.7}Ejercicio 7}{9}
