\relax 
\catcode `"\active 
\catcode `<\active 
\catcode `>\active 
\@nameuse{es@quoting}
\select@language{spanish}
\@writefile{toc}{\select@language{spanish}}
\@writefile{lof}{\select@language{spanish}}
\@writefile{lot}{\select@language{spanish}}
\@writefile{toc}{\contentsline {section}{\numberline {1}Introducci\IeC {\'o}n}{2}}
\@writefile{toc}{\contentsline {section}{\numberline {2}Desarrollo}{4}}
\@writefile{toc}{\contentsline {subsection}{\numberline {2.1}Implementaci\IeC {\'o}n}{4}}
\@writefile{toc}{\contentsline {subsubsection}{\numberline {2.1.1}Ejercicio 1: }{4}}
\@writefile{toc}{\contentsline {subsubsection}{\numberline {2.1.2}Ejercicio 2}{5}}
\@writefile{toc}{\contentsline {subsubsection}{\numberline {2.1.3}Ejercicio 3}{5}}
\@writefile{toc}{\contentsline {subsubsection}{\numberline {2.1.4}Ejercicio 4}{6}}
\@writefile{toc}{\contentsline {subsubsection}{\numberline {2.1.5}Ejercicio 5}{6}}
\@writefile{toc}{\contentsline {subsubsection}{\numberline {2.1.6}Ejercicio 6}{7}}
\@writefile{toc}{\contentsline {subsubsection}{\numberline {2.1.7}Ejercicio 7}{9}}
\newlabel{LastPage}{{}{9}}
\xdef\lastpage@lastpage{9}
\gdef\lastpage@lastpageHy{}
